…
Demonstrate R commands to generate summary statistics for each wordle in the `wordle.int` dataset: 

  - group the data by `wordle`, `solution`, `vowels`, `repeated`, `freq`, and `wday` 
  - count the numbers of non-missing values for the `score` and for the `attempts` variable. 
  - compute the _mean_  of `score` and `attempts`
  - compute the _standard deviation_ of `score` and `attempts`
  - save your results to `wordle.int.summary` and print the first 10 rows of that object
  - your results should look like this:
  
<div style="text-align: right"> (**2 marks**) </div>


````{verbatim wordle.int.summary, eval=FALSE, class.source="bg-success"}
# A tibble: 216 x 12
# Groups:   date, solution, vowels, repeated, freq [216]
   date       solution vowels repeated  freq wday  score_n score_mean score_sd attempts_n attempts_mean attempts_sd
   <date>     <chr>     <int>    <dbl> <dbl> <ord>   <int>      <dbl>    <dbl>      <int>         <dbl>       <dbl>
 1 2022-01-15 PANIC         2        0 -16.5 Sat        67       18.5     7.39         67          3.78        7.39
 2 2022-01-16 SOLAR         2        0 -15.7 Sun        60       17.4     6.83         60          4.03        6.83
 3 2022-01-17 SHIRE         2        0 -18.7 Mon        45       13.3     7.29         45          3.44        7.29
 4 2022-01-18 PROXY         2        0 -17.6 Tue        50       25.1     8.31         50          4.72        8.31
 5 2022-01-19 POINT         2        0 -14.0 Wed        55       17.2     6.01         55          3.55        6.01
 6 2022-01-20 ROBOT         2        0 -16.6 Thu        57       20.1     8.82         57          3.91        8.82
 7 2022-01-21 PRICK         1        0 -18.6 Fri       145       18.3     7.29        145          3.85        7.29
 8 2022-01-22 WINCE         2        0 -20.8 Sat        59       21.8     7.99         59          4.39        7.99
 9 2022-01-23 CRIMP         1        0 -19.3 Sun       102       18.7     6.97        102          3.95        6.97
10 2022-01-24 KNOLL         1        1 -19.1 Mon        72       26.3     6.68         72          4.54        6.68
# … with 206 more rows
…
